iiitb_rv32i.vcd
$date
	Sat Mar  9 02:31:42 2024
$end
$version
	Icarus Verilog
$end
$timescale
	1s
$end
$scope module iiitb_rv32i_tb $end
$var wire 32 ! WB_OUT [31:0] $end
$var wire 32 " NPC [31:0] $end
$var reg 1 # RN $end
$var reg 1 $ clk $end
$scope module rv32 $end
$var wire 1 # RN $end
$var wire 1 $ clk $end
$var reg 1 % BR_EN $end
$var reg 32 & EX_MEM_ALUOUT [31:0] $end
$var reg 32 ' EX_MEM_IR [31:0] $end
$var reg 32 ( ID_EX_A [31:0] $end
$var reg 32 ) ID_EX_B [31:0] $end
$var reg 32 * ID_EX_IMMEDIATE [31:0] $end
$var reg 32 + ID_EX_IR [31:0] $end
$var reg 32 , ID_EX_NPC [31:0] $end
$var reg 32 - ID_EX_RD [31:0] $end
$var reg 32 . IF_ID_IR [31:0] $end
$var reg 32 / IF_ID_NPC [31:0] $end
$var reg 32 0 MEM_WB_ALUOUT [31:0] $end
$var reg 32 1 MEM_WB_IR [31:0] $end
$var reg 32 2 MEM_WB_LDM [31:0] $end
$var reg 32 3 NPC [31:0] $end
$var reg 32 4 WB_OUT [31:0] $end
$upscope $end
$upscope $end
$enddefinitions $end
#0
$dumpvars
bx 4
b0 3
bx 2
bx 1
bx 0
bx /
bx .
bx -
bx ,
bx +
bx *
bx )
bx (
bx '
bx &
0%
1$
1#
b0 "
bx !
$end
#3
0$
#5
0#
#6
b1 /
b10001000001000001100000000 .
b1 "
b1 3
1$
#9
0$
#12
b1 ,
b100010 *
b10001000001000001100000000 +
b110 -
b10 )
b1 (
b10 /
b10001000001001001110000000 .
b10 "
b10 3
1$
#15
0$
#18
b11 &
b10001000001000001100000000 '
b10 ,
b10001000001001001110000000 +
bx -
b11 /
b10001100001010010000000000 .
b11 "
b11 3
1$
#21
0$
#24
b11 ,
b100011 *
b10001100001010010000000000 +
b11 )
b11111111111111111111111111111111 &
b10001000001001001110000000 '
b11 0
b10001000001000001100000000 1
b100 /
b10010100010011010010000000 .
b100 "
b100 3
1$
#27
0$
#30
b11 !
b11 4
b11111111111111111111111111111111 0
b10001000001001001110000000 1
b1 &
b10001100001010010000000000 '
b100 ,
b100101 *
b10010100010011010010000000 +
b101 )
b10 (
b101 /
b10010000001100010100000000 .
b101 "
b101 3
1$
#33
0$
#36
b101 ,
b100100 *
b10010000001100010100000000 +
b100 )
b1 (
b111 &
b10010100010011010010000000 '
b1 0
b10001100001010010000000000 1
b11111111111111111111111111111111 !
b11111111111111111111111111111111 4
b110 /
b10010000010101010110000000 .
b110 "
b110 3
1$
#39
0$
#42
b1 !
b1 4
b111 0
b10010100010011010010000000 1
b101 &
b10010000001100010100000000 '
b110 ,
b10010000010101010110000000 +
b10 (
b111 /
b10100100000011000000000 .
b111 "
b111 3
1$
#45
0$
#48
b111 ,
b101 *
b10100100000011000000000 +
b101 )
b100 (
b1 &
b10010000010101010110000000 '
b101 0
b10010000001100010100000000 1
b111 !
b111 4
b1000 /
b1000001001000110000001 .
b1000 "
b1000 3
1$
#51
0$
#54
b101 !
b101 4
b1 0
b10010000010101010110000000 1
b1001 &
b10100100000011000000000 '
b1000 ,
b10 *
b1000001001000110000001 +
b11 -
b10 )
b1 (
b1001 /
b1000001000011010000001 .
b1001 "
b1001 3
1$
#57
0$
#60
b1001 ,
b1000001000011010000001 +
bx -
b11 &
b1000001001000110000001 '
b1001 0
b10100100000011000000000 1
b1 !
b1 4
b1010 /
b111100000000000000000010 .
b1010 "
b1010 3
1$
#63
0$
#66
b1001 !
b1001 4
b1000001001000110000001 1
b1000001000011010000001 '
b1010 ,
b1111 *
b111100000000000000000010 +
b0 -
bx )
b0 (
b1011 /
bx .
b1011 "
b1011 3
1$
#69
0$
#72
b1011 ,
bx *
bx +
bx -
bx (
1%
b11001 &
b111100000000000000000010 '
b11 2
b1000001000011010000001 1
b1100 /
b1100 "
b1100 3
1$
#75
0$
#78
b11 !
b11 4
b111100000000000000000010 1
bx '
b1100 ,
b1101 /
0%
b11001 "
b11001 3
1$
#81
0$
#84
b1101 ,
bx 1
b11010 /
b1000010000011100000000 .
b11010 "
b11010 3
1$
#87
0$
#90
b11010 ,
b10 *
b1000010000011100000000 +
b10 )
b10 (
b11011 /
bx .
b11011 "
b11011 3
1$
#93
0$
#96
b11011 ,
bx *
bx +
bx )
bx (
b100 &
b1000010000011100000000 '
b11100 /
b11100 "
b11100 3
1$
#99
0$
#102
b100 0
b1000010000011100000000 1
bx '
b11100 ,
b11101 /
b11101 "
b11101 3
1$
#105
0$
#108
b11101 ,
bx 1
b100 !
b100 4
b11110 /
b11110 "
b11110 3
1$
#111
0$
#114
b11110 ,
b11111 /
b11111 "
b11111 3
1$
#117
0$
#120
b11111 ,
b100000 /
b100000 "
b100000 3
1$
#123
0$
#126
b100000 ,
b100001 /
b100001 "
b100001 3
1$
#129
0$
#132
b100001 ,
b100010 /
b100010 "
b100010 3
1$
#135
0$
#138
b100010 ,
b100011 /
b100011 "
b100011 3
1$
#141
0$
#144
b100011 ,
b100100 /
b100100 "
b100100 3
1$
#147
0$
#150
b100100 ,
b100101 /
b100101 "
b100101 3
1$
#153
0$
#156
b100101 ,
b100110 /
b100110 "
b100110 3
1$
#159
0$
#162
b100110 ,
b100111 /
b100111 "
b100111 3
1$
#165
0$
#168
b100111 ,
b101000 /
b101000 "
b101000 3
1$
#171
0$
#174
b101000 ,
b101001 /
b101001 "
b101001 3
1$
#177
0$
#180
b101001 ,
b101010 /
b101010 "
b101010 3
1$
#183
0$
#186
b101010 ,
b101011 /
b101011 "
b101011 3
1$
#189
0$
#192
b101011 ,
b101100 /
b101100 "
b101100 3
1$
#195
0$
#198
b101100 ,
b101101 /
b101101 "
b101101 3
1$
#201
0$
#204
b101101 ,
b101110 /
b101110 "
b101110 3
1$
#207
0$
#210
b101110 ,
b101111 /
b101111 "
b101111 3
1$
#213
0$
#216
b101111 ,
b110000 /
b110000 "
b110000 3
1$
#219
0$
#222
b110000 ,
b110001 /
b110001 "
b110001 3
1$
#225
0$
#228
b110001 ,
b110010 /
b110010 "
b110010 3
1$
#231
0$
#234
b110010 ,
b110011 /
b110011 "
b110011 3
1$
#237
0$
#240
b110011 ,
b110100 /
b110100 "
b110100 3
1$
#243
0$
#246
b110100 ,
b110101 /
b110101 "
b110101 3
1$
#249
0$
#252
b110101 ,
b110110 /
b110110 "
b110110 3
1$
#255
0$
#258
b110110 ,
b110111 /
b110111 "
b110111 3
1$
#261
0$
#264
b110111 ,
b111000 /
b111000 "
b111000 3
1$
#267
0$
#270
b111000 ,
b111001 /
b111001 "
b111001 3
1$
#273
0$
#276
b111001 ,
b111010 /
b111010 "
b111010 3
1$
#279
0$
#282
b111010 ,
b111011 /
b111011 "
b111011 3
1$
#285
0$
#288
b111011 ,
b111100 /
b111100 "
b111100 3
1$
#291
0$
#294
b111100 ,
b111101 /
b111101 "
b111101 3
1$
#297
0$
#300
b111101 ,
b111110 /
b111110 "
b111110 3
1$
